{
  "Version": "2012-10-17",
  "Statement": [{
    "Effect": "Allow",
    "Action": [
      "dynamodb:BatchGetItem",
      "dynamodb:GetItem",
      "dynamodb:Query",
      "dynamodb:Scan",
      "dynamodb:BatchWriteItem",
      "dynamodb:PutItem",
      "dynamodb:UpdateItem"
    ],
    "Resource": "arn:aws:dynamodb:ap-southeast-1:305013774461:table/Patients"
  }
  ]
}