[
    {
        "recorded_date": "2021-02-23T17:20:30+07:00",
        "heartbeat": 100
    },
    {
        "recorded_date": "2021-02-23T17:20:33+07:00",
        "heartbeat": 103
    },
    {
        "recorded_date": "2021-02-23T17:20:36+07:00",
        "heartbeat": 105
    },
    {
        "recorded_date": "2021-02-23T17:20:39+07:00",
        "heartbeat": 113
    },
    {
        "recorded_date": "2021-02-23T17:20:41+07:00",
        "heartbeat": 115
    },
    {
        "recorded_date": "2021-02-23T17:20:44+07:00",
        "heartbeat": 109
    },
    {
        "recorded_date": "2021-02-23T17:20:47+07:00",
        "heartbeat": 105
    },
    {
        "recorded_date": "2021-02-23T17:20:50+07:00",
        "heartbeat": 103
    },
    {
        "recorded_date": "2021-02-23T17:20:53+07:00",
        "heartbeat": 103
    },
    {
        "recorded_date": "2021-02-23T17:20:57+07:00",
        "heartbeat": 97
    },
    {
        "recorded_date": "2021-02-23T17:21:00+07:00",
        "heartbeat": 95
    },
    {
        "recorded_date": "2021-02-23T17:21:03+07:00",
        "heartbeat": 95
    }]